…
## Problem 1

import data trash wheel collection, specify the sheet and omit non-data
entries.

``` r
Trash_Wheel = read_excel("Trash-Wheel-Collection-Totals-7-2020-2.xlsx", #import data
                                    sheet = "Mr. Trash Wheel", #specify the sheet
                                    skip = 1, #skip the first row contain with graph
                                    cell_cols("A:N") #keep the column with data and omit non-data column 
                                )
Trash_Wheel
```

    ## # A tibble: 533 × 14
    ##    Dumpster Month       Year Date                `Weight (tons)` `Volume (cubic …
    ##    <chr>    <chr>      <dbl> <dttm>                        <dbl>            <dbl>
    ##  1 1        May         2014 2014-05-16 00:00:00            4.31               18
    ##  2 2        May         2014 2014-05-16 00:00:00            2.74               13
    ##  3 3        May         2014 2014-05-16 00:00:00            3.45               15
    ##  4 4        May         2014 2014-05-17 00:00:00            3.1                15
    ##  5 5        May         2014 2014-05-17 00:00:00            4.06               18
    ##  6 6        May         2014 2014-05-20 00:00:00            2.71               13
    ##  7 7        May         2014 2014-05-21 00:00:00            1.91                8
    ##  8 8        May         2014 2014-05-28 00:00:00            3.7                16
    ##  9 <NA>     May  Total    NA NA                            26.0               116
    ## 10 9        June        2014 2014-06-05 00:00:00            2.52               14
    ## # … with 523 more rows, and 8 more variables: Plastic Bottles <dbl>,
    ## #   Polystyrene <dbl>, Cigarette Butts <dbl>, Glass Bottles <dbl>,
    ## #   Grocery Bags <dbl>, Chip Bags <dbl>, Sports Balls <dbl>,
    ## #   Homes Powered* <dbl>
…
    ##  [1] "Dumpster"             "Month"                "Year"                
    ##  [4] "Date"                 "Weight (tons)"        "Volume (cubic yards)"
    ##  [7] "Plastic Bottles"      "Polystyrene"          "Cigarette Butts"     
    ## [10] "Glass Bottles"        "Grocery Bags"         "Chip Bags"           
    ## [13] "Sports Balls"         "Homes Powered*"

``` r
Trash_Wheel = janitor::clean_names(Trash_Wheel) %>%
  drop_na(dumpster) %>%
mutate(sports_balls = as.integer(round(sports_balls,0)))
Trash_Wheel
```

    ## # A tibble: 454 × 14
    ##    dumpster month  year date                weight_tons volume_cubic_yards
    ##    <chr>    <chr> <dbl> <dttm>                    <dbl>              <dbl>
    ##  1 1        May    2014 2014-05-16 00:00:00        4.31                 18
    ##  2 2        May    2014 2014-05-16 00:00:00        2.74                 13
    ##  3 3        May    2014 2014-05-16 00:00:00        3.45                 15
    ##  4 4        May    2014 2014-05-17 00:00:00        3.1                  15
    ##  5 5        May    2014 2014-05-17 00:00:00        4.06                 18
    ##  6 6        May    2014 2014-05-20 00:00:00        2.71                 13
    ##  7 7        May    2014 2014-05-21 00:00:00        1.91                  8
    ##  8 8        May    2014 2014-05-28 00:00:00        3.7                  16
    ##  9 9        June   2014 2014-06-05 00:00:00        2.52                 14
    ## 10 10       June   2014 2014-06-11 00:00:00        3.76                 18
    ## # … with 444 more rows, and 8 more variables: plastic_bottles <dbl>,
    ## #   polystyrene <dbl>, cigarette_butts <dbl>, glass_bottles <dbl>,
    ## #   grocery_bags <dbl>, chip_bags <dbl>, sports_balls <int>,
    ## #   homes_powered <dbl>
…
combine precipitation datasets of 2018 and 2019, and convert month to a
character variable

``` r
combine_1819 = bind_rows(precip_18, precip_19) %>% #combine 2018 and 2019 dataset
mutate(month = month.name[month]) #convert month to character variable
combine_1819
```

    ## # A tibble: 26 × 3
    ##    month     total  year
    ##    <chr>     <dbl> <dbl>
    ##  1 January    0.94  2018
    ##  2 February   4.8   2018
    ##  3 March      2.69  2018
    ##  4 April      4.69  2018
    ##  5 May        9.27  2018
    ##  6 June       4.77  2018
    ##  7 July      10.2   2018
    ##  8 August     6.45  2018
    ##  9 September 10.5   2018
    ## 10 October    2.12  2018
    ## # … with 16 more rows
…
